"COUNTRY";"2013";"2014";"2015";"2016";"2017";"2018"
"AUS";46511.408561;46664.71127;46213.00104;48895.598177;50362.167387;52485.040249
"AUT";48065.980083;48877.877018;49463.586692;51787.041396;53472.968508;55360.85832
"BEL";44885.349428;45992.49767;47016.177041;48465.096539;50879.191827;51821.556699
"CAN";43537.685224;44890.428874;43987.078434;44566.379585;46304.949062;47488.086145
"CHE";61376.711725;62168.581849;65454.684315;64675.081552;NA;NA
"CHL";21383.906446;21899.475349;21922.17274;22169.951452;23191.265447;24135.099296
"CZE";28675.788955;30091.894808;31430.796369;32949.978951;35699.146436;37527.199509
"DEU";46035.531279;47953.166499;48768.645545;50734.965577;53387.351589;54573.429939
"DNK";48222.975946;49648.01783;50577.64092;51979.900131;55542.17861;56448.082738
"ESP";32235.937123;33421.374885;34930.735125;36671.861516;38930.198354;39800.254459
"EST";26816.860009;28113.506335;28616.317015;30197.552586;32831.114274;NA
"FIN";41663.300112;42167.773015;42945.959813;44238.790787;46742.77028;48595.935753
"FRA";40413.873486;41014.141707;41722.840988;42957.144033;45176.638829;46165.63138
"GBR";39169.440716;40426.660393;41549.400066;42463.745821;44850.787531;45390.002396
"GRC";26066.371635;27020.358594;26939.417636;27274.886331;28635.269692;NA
"HUN";23804.714212;24497.602693;25458.602271;26477.373197;27988.979987;29835.329927
"IRL";40513.218911;43282.171871;53055.200139;58001.518715;61232.469905;NA
"ISR";33466.07195;34020.476492;35144.32457;37134.399294;38489.31543;39952.490789
"ITA";36005.199726;36198.077101;36654.133267;39290.906712;41425.430705;42291.944735
"JPN";40317.886349;40593.625446;41958.238439;42517.91149;43521.107715;44412.579996
"KOR";32848.41432;33693.235849;35858.075749;37242.681158;38840.772044;NA
"LTU";26089.733085;27823.386771;27783.28099;29221.991948;32073.267826;34175.450778
"LUX";63613.535515;67047.520814;67615.720185;68616.606056;71229.536364;72071.457937
"LVA";22640.020413;23762.966863;24692.547576;25812.617516;28002.457919;29788.022004
"MEX";16953.790585;17746.168637;17982.685762;18479.782059;19191.687697;19670.723412
"NLD";49909.707836;49111.386242;50340.409925;50580.294192;54914.925728;56884.48919
"NOR";67764.629857;68102.516438;63000.344312;60578.722376;64762.752781;68310.432902
"NZL";34651.372052;35563.591014;35905.178375;37537.74492;38560.972892;39111.192201
"OECD";39366.415471;40629.594897;41724.578761;42715.544692;NA;NA
"POL";23603.746134;24361.4103;25564.320703;26323.765466;28351.68174;NA
"PRT";27562.555251;28154.273553;28872.960522;30289.322496;32007.979541;32673.867127
"SVK";27639.019174;28562.868994;28953.450697;30317.179546;31732.457086;NA
"SVN";29578.426296;30589.39435;30664.460249;32355.333326;35498.678501;37366.144343
"SWE";47178.479593;48041.216017;49416.584943;49762.637461;52661.772659;54077.026479
"TUR";21997.102868;23764.848474;25423.711176;26018.778183;NA;NA
"USA";54281.789135;56656.811529;58264.181094;58905.544713;60939.359577;63637.923136
